"UnlitGeneric"
{
        "$baseTexture" "console/characters/aya"
//      "$vertexcolor" 1
//      "$vertexalpha" 1
        "$ignorez" 1
        "$no_fullbright" "1"
        "$nolod" "1"
        "$translucent" "1"
        "%keywords" "tf"
}
