 "Refract"
{

 	"$model" 1
 	"$refractamount" "0"
 	"$bluramount" "1"
	"$scale" "[1 1]"
 	"$normalmap" "console\hud\class_demo_normal"
 	"$dudvmap" "console\hud\class_demo_dudv"
	"$bumpframe" "0"
	"$translucent" "1"
	"$ignorez" "1"
	"$forcerefract" 1
	"$nofog" "1"
	"$refracttinttexture" "console\hud\class_demored_cloak"
	"$nocull" "1"	

}


